…
## Principais áreas de pesquisa

``` r
areas <- base_completa %>%
  filter(pais != "Brazil") %>% 
  select(resumo) %>%
  unnest_tokens(word, resumo) %>%
  filter(!word %in% stop_words$word) %>%       # remove stopwords
  filter(str_detect(word, "^[a-z]+$")) %>%     # limpa lixo
  count(word, sort = TRUE)
areas %>% slice_max(n, n = 30)
#> # A tibble: 30 × 2
#>    word            n
#>    <chr>       <int>
#>  1 data         1253
#>  2 energy       1056
#>  3 systems       473
#>  4 power         460
#>  5 performance   443
#>  6 based         439
#>  7 system        373
#>  8 efficiency    364
#>  9 consumption   338
#> 10 centers       333
#> # ℹ 20 more rows
bigrams <- base_completa %>%
  filter(pais != "Brazil") %>% 
  select(resumo) %>%
  unnest_tokens(bigram, resumo, token = "ngrams", n = 2) %>%
  separate(bigram, c("w1","w2"), sep = " ") %>%
  filter(!w1 %in% stop_words$word,
         !w2 %in% stop_words$word) %>%
  unite(bigram, w1, w2, sep = " ") %>%
  count(bigram, sort = TRUE)
bigrams %>% slice_max(n, n = 30)
#> # A tibble: 31 × 2
#>    bigram                      n
#>    <chr>                   <int>
#>  1 data centers              326
#>  2 data center               268
#>  3 energy efficiency         200
#>  4 energy consumption        197
#>  5 artificial intelligence    79
#>  6 machine learning           78
#>  7 power consumption          73
#>  8 renewable energy           65
#>  9 real time                  64
#> 10 digital technologies       62
#> # ℹ 21 more rows
```
…
